[
    {
        "id": "4e6e28fe696e961f",
        "type": "tab",
        "label": "Flow 1",
        "disabled": true,
        "info": "",
        "env": []
    },
    {
        "id": "3c805fe1f9635d29",
        "type": "tab",
        "label": "Flow 1",
        "disabled": false,
        "info": "",
        "env": []
    },
    {
        "id": "40c9fb84acc87ae9",
        "type": "tab",
        "label": "Flow 2",
        "disabled": false,
        "info": "",
        "env": []
    },
    {
        "id": "c8b0e08a61ee784e",
        "type": "tab",
        "label": "Flow 3",
        "disabled": true,
        "info": "",
        "env": []
    },
    {
        "id": "b1d202eb8509dac1",
        "type": "tab",
        "label": "Flow 3",
        "disabled": false,
        "info": "",
        "env": []
    },
    {
        "id": "4550b2ff0712e0c3",
        "type": "ui_group",
        "name": "Group 1",
        "tab": "",
        "order": 1,
        "disp": true,
        "width": "6",
        "collapse": false,
        "className": ""
    },
    {
        "id": "0b12b11bf426ba43",
        "type": "ui_group",
        "name": "Group 2",
        "tab": "",
        "order": 2,
        "disp": true,
        "width": 6
    },
    {
        "id": "6b746d99ff377135",
        "type": "ui_group",
        "name": "camiones serpero",
        "tab": "",
        "order": 1,
        "disp": true,
        "width": "6",
        "collapse": false,
        "className": ""
    },
    {
        "id": "7dd7c42979ee71c8",
        "type": "ui_base",
        "theme": {
            "name": "theme-custom",
            "lightTheme": {
                "default": "#0094CE",
                "baseColor": "#0094CE",
                "baseFont": "-apple-system,BlinkMacSystemFont,Segoe UI,Roboto,Oxygen-Sans,Ubuntu,Cantarell,Helvetica Neue,sans-serif",
                "edited": false
            },
            "darkTheme": {
                "default": "#097479",
                "baseColor": "#000000",
                "baseFont": "Impact,Impact,Charcoal,sans-serif",
                "edited": true,
                "reset": false
            },
            "customTheme": {
                "name": "Untitled Theme 1",
                "default": "#4B7930",
                "baseColor": "#000000",
                "baseFont": "Copperplate,Copperplate Gothic Light,fantasy",
                "reset": false
            },
            "themeState": {
                "base-color": {
                    "default": "#4B7930",
                    "value": "#000000",
                    "edited": true
                },
                "page-titlebar-backgroundColor": {
                    "value": "#000000",
                    "edited": true
                },
                "page-backgroundColor": {
                    "value": "#000000",
                    "edited": true
                },
                "page-sidebar-backgroundColor": {
                    "value": "#b0b0b0",
                    "edited": true
                },
                "group-textColor": {
                    "value": "#ffffff",
                    "edited": true
                },
                "group-borderColor": {
                    "value": "#e6e6e6",
                    "edited": true
                },
                "group-backgroundColor": {
                    "value": "#000000",
                    "edited": true
                },
                "widget-textColor": {
                    "value": "#ffffff",
                    "edited": true
                },
                "widget-backgroundColor": {
                    "value": "#000000",
                    "edited": true
                },
                "widget-borderColor": {
                    "value": "#000000",
                    "edited": true
                },
                "base-font": {
                    "value": "Copperplate,Copperplate Gothic Light,fantasy"
                }
            },
            "angularTheme": {
                "primary": "indigo",
                "accents": "blue",
                "warn": "red",
                "background": "grey",
                "palette": "light"
            }
        },
        "site": {
            "name": "Node-RED Dashboard",
            "hideToolbar": "false",
            "allowSwipe": "false",
            "lockMenu": "false",
            "allowTempTheme": "false",
            "dateFormat": "DD/MM/YYYY",
            "sizes": {
                "sx": 48,
                "sy": 48,
                "gx": 6,
                "gy": 6,
                "cx": 6,
                "cy": 6,
                "px": 0,
                "py": 0
            }
        }
    },
    {
        "id": "22a532fdb7461057",
        "type": "mqtt-broker",
        "name": "",
        "broker": "127.0.0.1",
        "port": "1883",
        "clientid": "",
        "autoConnect": true,
        "usetls": false,
        "protocolVersion": "3",
        "keepalive": "60",
        "cleansession": true,
        "birthTopic": "",
        "birthQos": "0",
        "birthPayload": "",
        "birthMsg": {},
        "closeTopic": "",
        "closeQos": "0",
        "closePayload": "",
        "closeMsg": {},
        "willTopic": "",
        "willQos": "0",
        "willPayload": "",
        "willMsg": {},
        "sessionExpiry": ""
    },
    {
        "id": "8aab2b36db38a7cd",
        "type": "ui_tab",
        "name": "ESP8266 mediciones",
        "icon": "dashboard",
        "order": 3,
        "disabled": false,
        "hidden": false
    },
    {
        "id": "1a05c8f9025688a1",
        "type": "ui_group",
        "name": "Medidores",
        "tab": "8aab2b36db38a7cd",
        "order": 1,
        "disp": true,
        "width": "32",
        "collapse": false,
        "className": ""
    },
    {
        "id": "d03cfc74ca0d46e2",
        "type": "ui_group",
        "name": "Barras",
        "tab": "8aab2b36db38a7cd",
        "order": 2,
        "disp": true,
        "width": "10",
        "collapse": false,
        "className": ""
    },
    {
        "id": "b571684935c6a8c4",
        "type": "ui_group",
        "name": "Grafico en T",
        "tab": "8aab2b36db38a7cd",
        "order": 3,
        "disp": true,
        "width": "22",
        "collapse": false,
        "className": ""
    },
    {
        "id": "ab26b46ebfe47805",
        "type": "ui_group",
        "name": "  ",
        "tab": "8aab2b36db38a7cd",
        "order": 4,
        "disp": true,
        "width": "32",
        "collapse": false,
        "className": ""
    },
    {
        "id": "9ed52e3a67c19e57",
        "type": "ui_spacer",
        "z": "b1d202eb8509dac1",
        "name": "spacer",
        "group": "d03cfc74ca0d46e2",
        "order": 1,
        "width": 1,
        "height": 1
    },
    {
        "id": "bc0a5ead94fbce76",
        "type": "ui_spacer",
        "z": "b1d202eb8509dac1",
        "name": "spacer",
        "group": "d03cfc74ca0d46e2",
        "order": 3,
        "width": 1,
        "height": 1
    },
    {
        "id": "b0f66525a133491c",
        "type": "ui_spacer",
        "z": "b1d202eb8509dac1",
        "name": "spacer",
        "group": "d03cfc74ca0d46e2",
        "order": 5,
        "width": 1,
        "height": 1
    },
    {
        "id": "2620d8e2a7686a9c",
        "type": "ui_spacer",
        "z": "b1d202eb8509dac1",
        "name": "spacer",
        "group": "d03cfc74ca0d46e2",
        "order": 7,
        "width": 1,
        "height": 1
    },
    {
        "id": "53e95a0dd2f8d2ec",
        "type": "ui_spacer",
        "z": "b1d202eb8509dac1",
        "name": "spacer",
        "group": "d03cfc74ca0d46e2",
        "order": 8,
        "width": 1,
        "height": 1
    },
    {
        "id": "f3868bc640bcf090",
        "type": "ui_spacer",
        "z": "b1d202eb8509dac1",
        "name": "spacer",
        "group": "d03cfc74ca0d46e2",
        "order": 9,
        "width": 1,
        "height": 1
    },
    {
        "id": "8fd511c8e2f0778e",
        "type": "ui_spacer",
        "z": "b1d202eb8509dac1",
        "name": "spacer",
        "group": "d03cfc74ca0d46e2",
        "order": 10,
        "width": 1,
        "height": 1
    },
    {
        "id": "b421934cd1acc2a0",
        "type": "ui_spacer",
        "z": "b1d202eb8509dac1",
        "name": "spacer",
        "group": "d03cfc74ca0d46e2",
        "order": 11,
        "width": 1,
        "height": 1
    },
    {
        "id": "8bdc0d61cac29cd7",
        "type": "ui_spacer",
        "z": "b1d202eb8509dac1",
        "name": "spacer",
        "group": "d03cfc74ca0d46e2",
        "order": 12,
        "width": 1,
        "height": 1
    },
    {
        "id": "78cf882ce3a6ccd9",
        "type": "ui_spacer",
        "z": "b1d202eb8509dac1",
        "name": "spacer",
        "group": "d03cfc74ca0d46e2",
        "order": 13,
        "width": 1,
        "height": 1
    },
    {
        "id": "c85e74dea5ae30de",
        "type": "ui_spacer",
        "z": "b1d202eb8509dac1",
        "name": "spacer",
        "group": "d03cfc74ca0d46e2",
        "order": 14,
        "width": 1,
        "height": 1
    },
    {
        "id": "250a71dc79c6572a",
        "type": "ui_spacer",
        "z": "b1d202eb8509dac1",
        "name": "spacer",
        "group": "d03cfc74ca0d46e2",
        "order": 15,
        "width": 1,
        "height": 1
    },
    {
        "id": "f7f03f6f888fbe2f",
        "type": "ui_spacer",
        "z": "b1d202eb8509dac1",
        "name": "spacer",
        "group": "d03cfc74ca0d46e2",
        "order": 16,
        "width": 1,
        "height": 1
    },
    {
        "id": "28400d882bf53122",
        "type": "ui_spacer",
        "z": "b1d202eb8509dac1",
        "name": "spacer",
        "group": "d03cfc74ca0d46e2",
        "order": 17,
        "width": 1,
        "height": 1
    },
    {
        "id": "1c1813a3a6cce6f3",
        "type": "ui_spacer",
        "z": "b1d202eb8509dac1",
        "name": "spacer",
        "group": "d03cfc74ca0d46e2",
        "order": 18,
        "width": 1,
        "height": 1
    },
    {
        "id": "8d9653eafc73b84f",
        "type": "ui_spacer",
        "z": "b1d202eb8509dac1",
        "name": "spacer",
        "group": "d03cfc74ca0d46e2",
        "order": 19,
        "width": 1,
        "height": 1
    },
    {
        "id": "978c24e1e9c38941",
        "type": "ui_spacer",
        "z": "b1d202eb8509dac1",
        "name": "spacer",
        "group": "d03cfc74ca0d46e2",
        "order": 20,
        "width": 1,
        "height": 1
    },
    {
        "id": "98a6dac9ecc18d80",
        "type": "ui_spacer",
        "z": "b1d202eb8509dac1",
        "name": "spacer",
        "group": "d03cfc74ca0d46e2",
        "order": 21,
        "width": 1,
        "height": 1
    },
    {
        "id": "6d039419c516fa8d",
        "type": "ui_spacer",
        "z": "b1d202eb8509dac1",
        "name": "spacer",
        "group": "d03cfc74ca0d46e2",
        "order": 22,
        "width": 1,
        "height": 1
    },
    {
        "id": "eb6294cbd4f7a9fc",
        "type": "ui_spacer",
        "z": "b1d202eb8509dac1",
        "name": "spacer",
        "group": "d03cfc74ca0d46e2",
        "order": 23,
        "width": 1,
        "height": 1
    },
    {
        "id": "237b46888fd26dd6",
        "type": "ui_spacer",
        "z": "b1d202eb8509dac1",
        "name": "spacer",
        "group": "d03cfc74ca0d46e2",
        "order": 24,
        "width": 1,
        "height": 1
    },
    {
        "id": "9973aea804d6b925",
        "type": "ui_spacer",
        "z": "b1d202eb8509dac1",
        "name": "spacer",
        "group": "d03cfc74ca0d46e2",
        "order": 25,
        "width": 1,
        "height": 1
    },
    {
        "id": "95bd84096bc625b2",
        "type": "ui_spacer",
        "z": "b1d202eb8509dac1",
        "name": "spacer",
        "group": "d03cfc74ca0d46e2",
        "order": 26,
        "width": 1,
        "height": 1
    },
    {
        "id": "5667f9c9401bc4fc",
        "type": "ui_spacer",
        "z": "b1d202eb8509dac1",
        "name": "spacer",
        "group": "d03cfc74ca0d46e2",
        "order": 27,
        "width": 1,
        "height": 1
    },
    {
        "id": "c946eea75591412b",
        "type": "ui_spacer",
        "z": "b1d202eb8509dac1",
        "name": "spacer",
        "group": "d03cfc74ca0d46e2",
        "order": 28,
        "width": 1,
        "height": 1
    },
    {
        "id": "3335a8f7882bbfb8",
        "type": "ui_spacer",
        "z": "b1d202eb8509dac1",
        "name": "spacer",
        "group": "d03cfc74ca0d46e2",
        "order": 29,
        "width": 1,
        "height": 1
    },
    {
        "id": "3a730d56bdbf089a",
        "type": "ui_spacer",
        "z": "b1d202eb8509dac1",
        "name": "spacer",
        "group": "d03cfc74ca0d46e2",
        "order": 30,
        "width": 1,
        "height": 1
    },
    {
        "id": "5fc286b3cc737925",
        "type": "ui_spacer",
        "z": "b1d202eb8509dac1",
        "name": "spacer",
        "group": "d03cfc74ca0d46e2",
        "order": 31,
        "width": 1,
        "height": 1
    },
    {
        "id": "35bb2d3f93366496",
        "type": "ui_spacer",
        "z": "b1d202eb8509dac1",
        "name": "spacer",
        "group": "b571684935c6a8c4",
        "order": 1,
        "width": 1,
        "height": 1
    },
    {
        "id": "90397b2041b2777a",
        "type": "ui_spacer",
        "z": "b1d202eb8509dac1",
        "name": "spacer",
        "group": "b571684935c6a8c4",
        "order": 3,
        "width": 1,
        "height": 1
    },
    {
        "id": "bcc3586b37ed82d1",
        "type": "ui_spacer",
        "z": "b1d202eb8509dac1",
        "name": "spacer",
        "group": "b571684935c6a8c4",
        "order": 4,
        "width": 1,
        "height": 1
    },
    {
        "id": "5092fb8e524b9e3e",
        "type": "ui_spacer",
        "z": "b1d202eb8509dac1",
        "name": "spacer",
        "group": "b571684935c6a8c4",
        "order": 5,
        "width": 1,
        "height": 1
    },
    {
        "id": "abea42e463dc8c3e",
        "type": "ui_spacer",
        "z": "b1d202eb8509dac1",
        "name": "spacer",
        "group": "b571684935c6a8c4",
        "order": 6,
        "width": 1,
        "height": 1
    },
    {
        "id": "60771c9eb6df2b62",
        "type": "ui_spacer",
        "z": "b1d202eb8509dac1",
        "name": "spacer",
        "group": "b571684935c6a8c4",
        "order": 7,
        "width": 1,
        "height": 1
    },
    {
        "id": "13d5baf50349e7ef",
        "type": "ui_spacer",
        "z": "b1d202eb8509dac1",
        "name": "spacer",
        "group": "b571684935c6a8c4",
        "order": 8,
        "width": 1,
        "height": 1
    },
    {
        "id": "67161754adddd88f",
        "type": "ui_spacer",
        "z": "b1d202eb8509dac1",
        "name": "spacer",
        "group": "b571684935c6a8c4",
        "order": 9,
        "width": 1,
        "height": 1
    },
    {
        "id": "f577a35721ef200c",
        "type": "ui_spacer",
        "z": "b1d202eb8509dac1",
        "name": "spacer",
        "group": "b571684935c6a8c4",
        "order": 10,
        "width": 1,
        "height": 1
    },
    {
        "id": "e99f3b09acd8363e",
        "type": "ui_spacer",
        "z": "b1d202eb8509dac1",
        "name": "spacer",
        "group": "b571684935c6a8c4",
        "order": 11,
        "width": 1,
        "height": 1
    },
    {
        "id": "fabbb9f669dfecea",
        "type": "ui_spacer",
        "z": "b1d202eb8509dac1",
        "name": "spacer",
        "group": "b571684935c6a8c4",
        "order": 12,
        "width": 1,
        "height": 1
    },
    {
        "id": "f81fce7d2ef5a85e",
        "type": "ui_spacer",
        "z": "b1d202eb8509dac1",
        "name": "spacer",
        "group": "b571684935c6a8c4",
        "order": 13,
        "width": 1,
        "height": 1
    },
    {
        "id": "030dc8e51f7a4089",
        "type": "ui_spacer",
        "z": "b1d202eb8509dac1",
        "name": "spacer",
        "group": "b571684935c6a8c4",
        "order": 14,
        "width": 1,
        "height": 1
    },
    {
        "id": "40d7030108cb4ff7",
        "type": "ui_spacer",
        "z": "b1d202eb8509dac1",
        "name": "spacer",
        "group": "b571684935c6a8c4",
        "order": 15,
        "width": 1,
        "height": 1
    },
    {
        "id": "0e0a745660c6a3b3",
        "type": "inject",
        "z": "3c805fe1f9635d29",
        "name": "",
        "props": [
            {
                "p": "payload"
            }
        ],
        "repeat": "",
        "crontab": "",
        "once": false,
        "onceDelay": 0.1,
        "topic": "",
        "payload": "culon",
        "payloadType": "str",
        "x": 120,
        "y": 120,
        "wires": [
            [
                "b3ad403f6f8c28ce",
                "a8cf632ec42a2614"
            ]
        ]
    },
    {
        "id": "b3ad403f6f8c28ce",
        "type": "file",
        "z": "3c805fe1f9635d29",
        "name": "culo",
        "filename": "/home/linuxlite/Desktop/culo.txt",
        "appendNewline": true,
        "createDir": false,
        "overwriteFile": "false",
        "encoding": "none",
        "x": 480,
        "y": 120,
        "wires": [
            []
        ]
    },
    {
        "id": "a8cf632ec42a2614",
        "type": "debug",
        "z": "3c805fe1f9635d29",
        "name": "",
        "active": true,
        "tosidebar": true,
        "console": true,
        "tostatus": false,
        "complete": "pinfgo",
        "targetType": "msg",
        "statusVal": "",
        "statusType": "auto",
        "x": 530,
        "y": 60,
        "wires": []
    },
    {
        "id": "2ba305c10651d6c4",
        "type": "inject",
        "z": "40c9fb84acc87ae9",
        "name": "",
        "props": [
            {
                "p": "payload"
            },
            {
                "p": "topic",
                "vt": "str"
            }
        ],
        "repeat": "5",
        "crontab": "",
        "once": false,
        "onceDelay": 0.1,
        "topic": "",
        "payload": "oi mondo muito ollinho",
        "payloadType": "str",
        "x": 130,
        "y": 80,
        "wires": [
            [
                "ae74452aa58dc128",
                "802cadaf9e1bbf97"
            ]
        ]
    },
    {
        "id": "ae74452aa58dc128",
        "type": "csv",
        "z": "40c9fb84acc87ae9",
        "name": "",
        "sep": ",",
        "hdrin": "",
        "hdrout": "none",
        "multi": "one",
        "ret": "\\n",
        "temp": "",
        "skip": "0",
        "strings": true,
        "include_empty_strings": "",
        "include_null_values": "",
        "x": 380,
        "y": 80,
        "wires": [
            [
                "cd30c8b4e0dd3f65"
            ]
        ]
    },
    {
        "id": "cd30c8b4e0dd3f65",
        "type": "debug",
        "z": "40c9fb84acc87ae9",
        "name": "",
        "active": true,
        "tosidebar": false,
        "console": false,
        "tostatus": false,
        "complete": "payload",
        "targetType": "msg",
        "statusVal": "",
        "statusType": "auto",
        "x": 520,
        "y": 80,
        "wires": []
    },
    {
        "id": "802cadaf9e1bbf97",
        "type": "file",
        "z": "40c9fb84acc87ae9",
        "name": "culo",
        "filename": "/home/linuxlite/Downloads/culo.txt",
        "appendNewline": true,
        "createDir": false,
        "overwriteFile": "false",
        "encoding": "utf8",
        "x": 340,
        "y": 180,
        "wires": [
            [
                "662923b456589bc1"
            ]
        ]
    },
    {
        "id": "662923b456589bc1",
        "type": "debug",
        "z": "40c9fb84acc87ae9",
        "name": "OI mundo",
        "active": true,
        "tosidebar": true,
        "console": false,
        "tostatus": false,
        "complete": "payload",
        "targetType": "msg",
        "statusVal": "",
        "statusType": "auto",
        "x": 680,
        "y": 120,
        "wires": []
    },
    {
        "id": "d0a5c7ad0841dc3e",
        "type": "trigger",
        "z": "40c9fb84acc87ae9",
        "name": "",
        "op1": "true",
        "op2": "0",
        "op1type": "bool",
        "op2type": "str",
        "duration": "-5",
        "extend": false,
        "overrideDelay": false,
        "units": "s",
        "reset": "",
        "bytopic": "all",
        "topic": "topic",
        "outputs": 1,
        "x": 160,
        "y": 400,
        "wires": [
            [
                "6f9c7614161c99bb"
            ]
        ]
    },
    {
        "id": "6664211c065f1fef",
        "type": "trigger",
        "z": "40c9fb84acc87ae9",
        "name": "",
        "op1": "alejate de bigo",
        "op2": "0",
        "op1type": "str",
        "op2type": "str",
        "duration": "-5",
        "extend": false,
        "overrideDelay": false,
        "units": "s",
        "reset": "",
        "bytopic": "all",
        "topic": "topic",
        "outputs": 1,
        "x": 160,
        "y": 620,
        "wires": [
            [
                "c754e5d748b40871"
            ]
        ]
    },
    {
        "id": "5a4bc39feffdca7c",
        "type": "ui_button",
        "z": "40c9fb84acc87ae9",
        "name": "",
        "group": "4550b2ff0712e0c3",
        "order": 0,
        "width": 0,
        "height": 0,
        "passthru": false,
        "label": "button",
        "tooltip": "",
        "color": "black",
        "bgcolor": "penis",
        "className": "",
        "icon": "",
        "payload": "",
        "payloadType": "str",
        "topic": "topic",
        "topicType": "msg",
        "x": 70,
        "y": 320,
        "wires": [
            [
                "d0a5c7ad0841dc3e"
            ]
        ]
    },
    {
        "id": "c8dafd8d520736a1",
        "type": "ui_button",
        "z": "40c9fb84acc87ae9",
        "name": "",
        "group": "6b746d99ff377135",
        "order": 5,
        "width": 0,
        "height": 0,
        "passthru": false,
        "label": "camiones serpero",
        "tooltip": "",
        "color": "",
        "bgcolor": "",
        "className": "",
        "icon": "",
        "payload": "camiones serpero",
        "payloadType": "str",
        "topic": "topic",
        "topicType": "msg",
        "x": 170,
        "y": 540,
        "wires": [
            [
                "b4f0250c852116df",
                "cd636c302a8e6f87",
                "6664211c065f1fef"
            ]
        ]
    },
    {
        "id": "327cbd734574dc36",
        "type": "ui_form",
        "z": "40c9fb84acc87ae9",
        "name": "",
        "label": "",
        "group": "4550b2ff0712e0c3",
        "order": 2,
        "width": 0,
        "height": 0,
        "options": [
            {
                "label": "pingo",
                "value": "dssdsdsdsdsd",
                "type": "text",
                "required": true,
                "rows": null
            }
        ],
        "formValue": {
            "dssdsdsdsdsd": ""
        },
        "payload": "",
        "submit": "submit",
        "cancel": "cancel",
        "topic": "topic",
        "topicType": "str",
        "splitLayout": "",
        "className": "",
        "x": 110,
        "y": 720,
        "wires": [
            [
                "9324382eee6dda83"
            ]
        ]
    },
    {
        "id": "63e379ecb2da6e45",
        "type": "ui_text",
        "z": "40c9fb84acc87ae9",
        "group": "4550b2ff0712e0c3",
        "order": 3,
        "width": 0,
        "height": 0,
        "name": "",
        "label": "porodsdssnge",
        "format": "{{msg.payload}}",
        "layout": "row-spread",
        "className": "",
        "x": 700,
        "y": 360,
        "wires": []
    },
    {
        "id": "cd636c302a8e6f87",
        "type": "ui_text",
        "z": "40c9fb84acc87ae9",
        "group": "6b746d99ff377135",
        "order": 2,
        "width": 0,
        "height": 0,
        "name": "",
        "label": "text",
        "format": "{{msg.payload}}",
        "layout": "row-spread",
        "className": "",
        "x": 470,
        "y": 560,
        "wires": []
    },
    {
        "id": "f883a338ee0b452c",
        "type": "ui_gauge",
        "z": "40c9fb84acc87ae9",
        "name": "",
        "group": "4550b2ff0712e0c3",
        "order": 1,
        "width": "6",
        "height": "4",
        "gtype": "wave",
        "title": "wanda no lo hagas",
        "label": "p***s",
        "format": "{{value}}",
        "min": 0,
        "max": "100000",
        "colors": [
            "#00b500",
            "#e6e600",
            "#ca3838"
        ],
        "seg1": "",
        "seg2": "",
        "className": "",
        "x": 670,
        "y": 280,
        "wires": [],
        "icon": "font-awesome/fa-wheelchair-alt"
    },
    {
        "id": "f33280859feb2692",
        "type": "ui_chart",
        "z": "40c9fb84acc87ae9",
        "name": "",
        "group": "6b746d99ff377135",
        "order": 4,
        "width": "6",
        "height": "6",
        "label": "chart",
        "chartType": "line",
        "legend": "true",
        "xformat": "HH:mm:ss",
        "interpolate": "monotone",
        "nodata": "",
        "dot": false,
        "ymin": "",
        "ymax": "",
        "removeOlder": "20",
        "removeOlderPoints": "",
        "removeOlderUnit": "60",
        "cutout": 0,
        "useOneColor": false,
        "useUTC": false,
        "colors": [
            "#00ff33",
            "#aec7e8",
            "#ff7f0e",
            "#2ca02c",
            "#98df8a",
            "#d62728",
            "#ff9896",
            "#9467bd",
            "#c5b0d5"
        ],
        "outputs": 1,
        "useDifferentColor": false,
        "className": "",
        "x": 630,
        "y": 240,
        "wires": [
            []
        ]
    },
    {
        "id": "b4f0250c852116df",
        "type": "ui_audio",
        "z": "40c9fb84acc87ae9",
        "name": "",
        "group": "6b746d99ff377135",
        "voice": "",
        "always": true,
        "x": 460,
        "y": 600,
        "wires": []
    },
    {
        "id": "c754e5d748b40871",
        "type": "ui_audio",
        "z": "40c9fb84acc87ae9",
        "name": "",
        "group": "6b746d99ff377135",
        "voice": "",
        "always": true,
        "x": 420,
        "y": 680,
        "wires": []
    },
    {
        "id": "9324382eee6dda83",
        "type": "ui_audio",
        "z": "40c9fb84acc87ae9",
        "name": "",
        "group": "6b746d99ff377135",
        "voice": "",
        "always": true,
        "x": 380,
        "y": 780,
        "wires": []
    },
    {
        "id": "6f9c7614161c99bb",
        "type": "random",
        "z": "40c9fb84acc87ae9",
        "name": "culohm",
        "low": 1,
        "high": "100000",
        "inte": "true",
        "property": "payload",
        "x": 440,
        "y": 420,
        "wires": [
            [
                "f883a338ee0b452c",
                "63e379ecb2da6e45",
                "f33280859feb2692"
            ]
        ]
    },
    {
        "id": "f6e7b9fd2bc43b77",
        "type": "mqtt in",
        "z": "c8b0e08a61ee784e",
        "name": "temperatura",
        "topic": "smartway/cliente1/edificio1/oficinax/temperatura",
        "qos": "2",
        "datatype": "auto",
        "broker": "22a532fdb7461057",
        "nl": false,
        "rap": true,
        "rh": 0,
        "inputs": 0,
        "x": 850,
        "y": 140,
        "wires": [
            [
                "9df2512e32709c09",
                "ca89768d4cda1bd6"
            ]
        ]
    },
    {
        "id": "b3ba99fe15289f3d",
        "type": "debug",
        "z": "c8b0e08a61ee784e",
        "name": "temp",
        "active": true,
        "tosidebar": true,
        "console": false,
        "tostatus": false,
        "complete": "payload",
        "targetType": "msg",
        "statusVal": "",
        "statusType": "auto",
        "x": 1350,
        "y": 80,
        "wires": []
    },
    {
        "id": "109b7940147aceff",
        "type": "mqtt in",
        "z": "c8b0e08a61ee784e",
        "name": "humedad",
        "topic": "smartway/cliente1/edificio1/oficinax/humedad",
        "qos": "2",
        "datatype": "auto",
        "broker": "22a532fdb7461057",
        "nl": false,
        "rap": true,
        "rh": 0,
        "inputs": 0,
        "x": 840,
        "y": 260,
        "wires": [
            [
                "9014bcc894f0813e",
                "d45a07073d06516e"
            ]
        ]
    },
    {
        "id": "ab288f55ed530650",
        "type": "mqtt in",
        "z": "c8b0e08a61ee784e",
        "name": "presion",
        "topic": "smartway/cliente1/edificio1/oficinax/presion",
        "qos": "2",
        "datatype": "utf8",
        "broker": "22a532fdb7461057",
        "nl": false,
        "rap": true,
        "rh": 0,
        "inputs": 0,
        "x": 830,
        "y": 380,
        "wires": [
            [
                "4a8671f078616966",
                "a01270b3df9b4d43"
            ]
        ]
    },
    {
        "id": "9014bcc894f0813e",
        "type": "debug",
        "z": "c8b0e08a61ee784e",
        "name": "humedad",
        "active": true,
        "tosidebar": true,
        "console": false,
        "tostatus": false,
        "complete": "payload",
        "targetType": "msg",
        "statusVal": "",
        "statusType": "auto",
        "x": 1040,
        "y": 260,
        "wires": []
    },
    {
        "id": "4a8671f078616966",
        "type": "debug",
        "z": "c8b0e08a61ee784e",
        "name": "presion debug",
        "active": true,
        "tosidebar": true,
        "console": false,
        "tostatus": false,
        "complete": "payload",
        "targetType": "msg",
        "statusVal": "",
        "statusType": "auto",
        "x": 1040,
        "y": 380,
        "wires": []
    },
    {
        "id": "9df2512e32709c09",
        "type": "function",
        "z": "c8b0e08a61ee784e",
        "name": "celcius to farenheit",
        "func": "var tempc = msg.payload;\n    tempf = (tempc * 9/5) + 32;\n    tempf = Math.round(tempf * 10) / 10;\n    msg.payload = tempf;\n    return msg;",
        "outputs": 1,
        "noerr": 0,
        "initialize": "",
        "finalize": "",
        "libs": [],
        "x": 1070,
        "y": 180,
        "wires": [
            [
                "b3ba99fe15289f3d",
                "7fa9277435556b0e"
            ]
        ]
    },
    {
        "id": "ca89768d4cda1bd6",
        "type": "debug",
        "z": "c8b0e08a61ee784e",
        "name": "",
        "active": true,
        "tosidebar": true,
        "console": false,
        "tostatus": false,
        "complete": "false",
        "statusVal": "",
        "statusType": "auto",
        "x": 1050,
        "y": 140,
        "wires": []
    },
    {
        "id": "a01270b3df9b4d43",
        "type": "function",
        "z": "c8b0e08a61ee784e",
        "name": "topic.presion",
        "func": "var in1 = msg.payload;\n    out = in1;\n    out= Math.round(out* 10) / 10;\n    msg.payload = out;\n    msg.topic=\"presion\";\n    return msg;",
        "outputs": 1,
        "noerr": 0,
        "initialize": "",
        "finalize": "",
        "libs": [],
        "x": 1050,
        "y": 420,
        "wires": [
            []
        ]
    },
    {
        "id": "d45a07073d06516e",
        "type": "function",
        "z": "c8b0e08a61ee784e",
        "name": "topic.humedad",
        "func": "var in1 = msg.payload;\n    out = in1;\n    out= Math.round(out* 10) / 10;\n    msg.payload = out;\n    msg.topic=\"humedad\";\n    return msg;",
        "outputs": 1,
        "noerr": 0,
        "initialize": "",
        "finalize": "",
        "libs": [],
        "x": 1060,
        "y": 320,
        "wires": [
            []
        ]
    },
    {
        "id": "7fa9277435556b0e",
        "type": "function",
        "z": "c8b0e08a61ee784e",
        "name": "topic.farenheit",
        "func": "var in1 = msg.payload;\n    out = in1;\n    out= Math.round(out* 10) / 10;\n    msg.payload = out;\n    msg.topic=\"temp\";\n    return msg;",
        "outputs": 1,
        "noerr": 0,
        "initialize": "",
        "finalize": "",
        "libs": [],
        "x": 1060,
        "y": 220,
        "wires": [
            []
        ]
    },
    {
        "id": "608855a48445ac7f",
        "type": "join",
        "z": "c8b0e08a61ee784e",
        "name": "",
        "mode": "auto",
        "build": "object",
        "property": "payload",
        "propertyType": "msg",
        "key": "topic",
        "joiner": "\\n",
        "joinerType": "str",
        "accumulate": "false",
        "timeout": "",
        "count": "",
        "reduceRight": false,
        "x": 90,
        "y": 300,
        "wires": [
            []
        ]
    },
    {
        "id": "a2ee0c757757478b",
        "type": "ui_button",
        "z": "c8b0e08a61ee784e",
        "name": "",
        "group": "ab26b46ebfe47805",
        "order": 0,
        "width": "32",
        "height": "2",
        "passthru": false,
        "label": " ",
        "tooltip": "",
        "color": "black",
        "bgcolor": "black",
        "className": "",
        "icon": "",
        "payload": "alejate de bigo",
        "payloadType": "str",
        "topic": "trollencio",
        "topicType": "msg",
        "x": 1040,
        "y": 540,
        "wires": [
            [
                "684e9908b652f4b0",
                "e2b1c72aaed707c2"
            ]
        ]
    },
    {
        "id": "684e9908b652f4b0",
        "type": "ui_audio",
        "z": "c8b0e08a61ee784e",
        "name": "",
        "group": "ab26b46ebfe47805",
        "voice": "Google español de Estados Unidos",
        "always": true,
        "x": 1340,
        "y": 520,
        "wires": []
    },
    {
        "id": "e2b1c72aaed707c2",
        "type": "delay",
        "z": "c8b0e08a61ee784e",
        "name": "",
        "pauseType": "delay",
        "timeout": "2",
        "timeoutUnits": "seconds",
        "rate": "1",
        "nbRateUnits": "1",
        "rateUnits": "second",
        "randomFirst": "1",
        "randomLast": "5",
        "randomUnits": "seconds",
        "drop": false,
        "allowrate": false,
        "outputs": 1,
        "x": 1210,
        "y": 620,
        "wires": [
            [
                "3c54d50d48d7aa48"
            ]
        ]
    },
    {
        "id": "15e33e8823dfcc7a",
        "type": "ui_audio",
        "z": "c8b0e08a61ee784e",
        "name": "",
        "group": "ab26b46ebfe47805",
        "voice": "Google US English",
        "always": "",
        "x": 1540,
        "y": 640,
        "wires": []
    },
    {
        "id": "3c54d50d48d7aa48",
        "type": "function",
        "z": "c8b0e08a61ee784e",
        "name": "topic.presion",
        "func": "var in1 = msg.payload;\nif (in1==\"alejate de bigo\")\n    {\n    out = \"guau guau no lo hagas kerke\";\n    }\n    msg.payload = out;\n    msg.topic=\"bigo\";\n    return msg;",
        "outputs": 1,
        "noerr": 0,
        "initialize": "",
        "finalize": "",
        "libs": [],
        "x": 1370,
        "y": 620,
        "wires": [
            [
                "15e33e8823dfcc7a"
            ]
        ]
    },
    {
        "id": "8a8878d19e651a69",
        "type": "debug",
        "z": "c8b0e08a61ee784e",
        "name": "",
        "active": true,
        "tosidebar": true,
        "console": false,
        "tostatus": false,
        "complete": "payloadrererer",
        "targetType": "msg",
        "statusVal": "",
        "statusType": "auto",
        "x": 1960,
        "y": 220,
        "wires": []
    },
    {
        "id": "23d2c3d2db6771b6",
        "type": "mqtt in",
        "z": "b1d202eb8509dac1",
        "name": "temperatura",
        "topic": "smartway/cliente1/edificio1/oficinax/temperatura",
        "qos": "2",
        "datatype": "auto",
        "broker": "22a532fdb7461057",
        "nl": false,
        "rap": true,
        "rh": 0,
        "inputs": 0,
        "x": 850,
        "y": 140,
        "wires": [
            [
                "50eb056a4d56a45c",
                "a505ad964241b099"
            ]
        ]
    },
    {
        "id": "45c4d05f8b994cfa",
        "type": "debug",
        "z": "b1d202eb8509dac1",
        "name": "temp",
        "active": true,
        "tosidebar": true,
        "console": false,
        "tostatus": false,
        "complete": "payload",
        "targetType": "msg",
        "statusVal": "",
        "statusType": "auto",
        "x": 1350,
        "y": 80,
        "wires": []
    },
    {
        "id": "361a812dece53d1e",
        "type": "ui_gauge",
        "z": "b1d202eb8509dac1",
        "name": "",
        "group": "1a05c8f9025688a1",
        "order": 4,
        "width": "11",
        "height": "6",
        "gtype": "gage",
        "title": "temperatura fº",
        "label": "fº",
        "format": "{{value}}",
        "min": 0,
        "max": "212",
        "colors": [
            "#00ff0d",
            "#fff700",
            "#ff0000"
        ],
        "seg1": "",
        "seg2": "",
        "className": "",
        "x": 1380,
        "y": 120,
        "wires": []
    },
    {
        "id": "fa31aa8defd0a96c",
        "type": "mqtt in",
        "z": "b1d202eb8509dac1",
        "name": "humedad",
        "topic": "smartway/cliente1/edificio1/oficinax/humedad",
        "qos": "2",
        "datatype": "auto",
        "broker": "22a532fdb7461057",
        "nl": false,
        "rap": true,
        "rh": 0,
        "inputs": 0,
        "x": 840,
        "y": 260,
        "wires": [
            [
                "4ab6e6b139e66604",
                "9081e14ff7c93816",
                "d9d688a7b72ad2b9"
            ]
        ]
    },
    {
        "id": "c3a00202aa20123c",
        "type": "mqtt in",
        "z": "b1d202eb8509dac1",
        "name": "presion",
        "topic": "smartway/cliente1/edificio1/oficinax/presion",
        "qos": "2",
        "datatype": "utf8",
        "broker": "22a532fdb7461057",
        "nl": false,
        "rap": true,
        "rh": 0,
        "inputs": 0,
        "x": 830,
        "y": 380,
        "wires": [
            [
                "978d57a9b3a0cc83",
                "71d3affe5566c9f8",
                "5330e9359564c6c4"
            ]
        ]
    },
    {
        "id": "4ab6e6b139e66604",
        "type": "debug",
        "z": "b1d202eb8509dac1",
        "name": "humedad",
        "active": true,
        "tosidebar": true,
        "console": false,
        "tostatus": false,
        "complete": "payload",
        "targetType": "msg",
        "statusVal": "",
        "statusType": "auto",
        "x": 1040,
        "y": 260,
        "wires": []
    },
    {
        "id": "978d57a9b3a0cc83",
        "type": "debug",
        "z": "b1d202eb8509dac1",
        "name": "presion debug",
        "active": true,
        "tosidebar": true,
        "console": false,
        "tostatus": false,
        "complete": "payload",
        "targetType": "msg",
        "statusVal": "",
        "statusType": "auto",
        "x": 1040,
        "y": 380,
        "wires": []
    },
    {
        "id": "9081e14ff7c93816",
        "type": "ui_gauge",
        "z": "b1d202eb8509dac1",
        "name": "",
        "group": "1a05c8f9025688a1",
        "order": 4,
        "width": "10",
        "height": "6",
        "gtype": "gage",
        "title": "humedad",
        "label": "g/m³",
        "format": "{{value}}",
        "min": 0,
        "max": "100",
        "colors": [
            "#00ff0d",
            "#fff700",
            "#ff0000"
        ],
        "seg1": "",
        "seg2": "",
        "className": "",
        "x": 1360,
        "y": 280,
        "wires": []
    },
    {
        "id": "71d3affe5566c9f8",
        "type": "ui_gauge",
        "z": "b1d202eb8509dac1",
        "name": "",
        "group": "1a05c8f9025688a1",
        "order": 4,
        "width": "11",
        "height": "6",
        "gtype": "gage",
        "title": "presion",
        "label": "Pa",
        "format": "{{value}}",
        "min": "960",
        "max": "1060",
        "colors": [
            "#00ff0d",
            "#fff700",
            "#ff0000"
        ],
        "seg1": "",
        "seg2": "",
        "className": "",
        "x": 1320,
        "y": 400,
        "wires": []
    },
    {
        "id": "50eb056a4d56a45c",
        "type": "function",
        "z": "b1d202eb8509dac1",
        "name": "celcius to farenheit",
        "func": "var tempc = msg.payload;\n    tempf = (tempc * 9/5) + 32;\n    tempf = Math.round(tempf * 10) / 10;\n    msg.payload = tempf;\n    return msg;",
        "outputs": 1,
        "noerr": 0,
        "initialize": "",
        "finalize": "",
        "libs": [],
        "x": 1070,
        "y": 180,
        "wires": [
            [
                "45c4d05f8b994cfa",
                "361a812dece53d1e",
                "e56d8c7a54ce7c7f"
            ]
        ]
    },
    {
        "id": "a505ad964241b099",
        "type": "debug",
        "z": "b1d202eb8509dac1",
        "name": "",
        "active": true,
        "tosidebar": true,
        "console": false,
        "tostatus": false,
        "complete": "false",
        "statusVal": "",
        "statusType": "auto",
        "x": 1050,
        "y": 140,
        "wires": []
    },
    {
        "id": "5330e9359564c6c4",
        "type": "function",
        "z": "b1d202eb8509dac1",
        "name": "topic.presion",
        "func": "var in1 = msg.payload;\n    out = in1;\n    out= Math.round(out* 10) / 10;\n    msg.payload = out;\n    msg.topic=\"presion\";\n    return msg;",
        "outputs": 1,
        "noerr": 0,
        "initialize": "",
        "finalize": "",
        "libs": [],
        "x": 1050,
        "y": 420,
        "wires": [
            [
                "9d9c929f0865ba69",
                "18911c0c31f28632"
            ]
        ]
    },
    {
        "id": "9d9c929f0865ba69",
        "type": "ui_chart",
        "z": "b1d202eb8509dac1",
        "name": "",
        "group": "d03cfc74ca0d46e2",
        "order": 2,
        "width": 2,
        "height": 7,
        "label": "presion",
        "chartType": "bar",
        "legend": "false",
        "xformat": "HH:mm:ss",
        "interpolate": "linear",
        "nodata": "",
        "dot": false,
        "ymin": "960",
        "ymax": "1060",
        "removeOlder": 1,
        "removeOlderPoints": "",
        "removeOlderUnit": "3600",
        "cutout": 0,
        "useOneColor": true,
        "useUTC": false,
        "colors": [
            "#ff0000",
            "#aec7e8",
            "#ff7f0e",
            "#2ca02c",
            "#98df8a",
            "#d62728",
            "#ff9896",
            "#9467bd",
            "#c5b0d5"
        ],
        "outputs": 1,
        "useDifferentColor": false,
        "className": "",
        "x": 1320,
        "y": 440,
        "wires": [
            []
        ]
    },
    {
        "id": "d9d688a7b72ad2b9",
        "type": "function",
        "z": "b1d202eb8509dac1",
        "name": "topic.humedad",
        "func": "var in1 = msg.payload;\n    out = in1;\n    out= Math.round(out* 10) / 10;\n    msg.payload = out;\n    msg.topic=\"humedad\";\n    return msg;",
        "outputs": 1,
        "noerr": 0,
        "initialize": "",
        "finalize": "",
        "libs": [],
        "x": 1060,
        "y": 320,
        "wires": [
            [
                "07e2f2ad61a7a626",
                "18911c0c31f28632",
                "529717ecc462077c"
            ]
        ]
    },
    {
        "id": "07e2f2ad61a7a626",
        "type": "ui_chart",
        "z": "b1d202eb8509dac1",
        "name": "",
        "group": "d03cfc74ca0d46e2",
        "order": 6,
        "width": 2,
        "height": 7,
        "label": "humedad",
        "chartType": "bar",
        "legend": "false",
        "xformat": "HH:mm:ss",
        "interpolate": "linear",
        "nodata": "",
        "dot": false,
        "ymin": "0",
        "ymax": "100",
        "removeOlder": 1,
        "removeOlderPoints": "",
        "removeOlderUnit": "3600",
        "cutout": 0,
        "useOneColor": true,
        "useUTC": false,
        "colors": [
            "#0099ff",
            "#aec7e8",
            "#ff7f0e",
            "#2ca02c",
            "#98df8a",
            "#d62728",
            "#ff9896",
            "#9467bd",
            "#c5b0d5"
        ],
        "outputs": 1,
        "useDifferentColor": false,
        "className": "",
        "x": 1360,
        "y": 320,
        "wires": [
            []
        ]
    },
    {
        "id": "e56d8c7a54ce7c7f",
        "type": "function",
        "z": "b1d202eb8509dac1",
        "name": "topic.farenheit",
        "func": "var in1 = msg.payload;\n    out = in1;\n    out= Math.round(out* 10) / 10;\n    msg.payload = out;\n    msg.topic=\"temp\";\n    return msg;",
        "outputs": 1,
        "noerr": 0,
        "initialize": "",
        "finalize": "",
        "libs": [],
        "x": 1060,
        "y": 220,
        "wires": [
            [
                "ca0a1fdda78367f7",
                "18911c0c31f28632",
                "529717ecc462077c"
            ]
        ]
    },
    {
        "id": "ca0a1fdda78367f7",
        "type": "ui_chart",
        "z": "b1d202eb8509dac1",
        "name": "",
        "group": "d03cfc74ca0d46e2",
        "order": 4,
        "width": 2,
        "height": 7,
        "label": "temp.",
        "chartType": "bar",
        "legend": "false",
        "xformat": "HH:mm:ss",
        "interpolate": "linear",
        "nodata": "",
        "dot": false,
        "ymin": "0",
        "ymax": "212",
        "removeOlder": 1,
        "removeOlderPoints": "",
        "removeOlderUnit": "3600",
        "cutout": 0,
        "useOneColor": true,
        "useUTC": false,
        "colors": [
            "#bfff00",
            "#aec7e8",
            "#ff7f0e",
            "#2ca02c",
            "#98df8a",
            "#d62728",
            "#ff9896",
            "#9467bd",
            "#c5b0d5"
        ],
        "outputs": 1,
        "useDifferentColor": false,
        "className": "",
        "x": 1350,
        "y": 160,
        "wires": [
            []
        ]
    },
    {
        "id": "18911c0c31f28632",
        "type": "join",
        "z": "b1d202eb8509dac1",
        "name": "",
        "mode": "custom",
        "build": "string",
        "property": "payload",
        "propertyType": "msg",
        "key": "topic",
        "joiner": ",",
        "joinerType": "str",
        "accumulate": false,
        "timeout": "",
        "count": "3",
        "reduceRight": false,
        "reduceExp": "",
        "reduceInit": "",
        "reduceInitType": "",
        "reduceFixup": "",
        "x": 1570,
        "y": 400,
        "wires": [
            [
                "eb1290e155255173"
            ]
        ]
    },
    {
        "id": "1786b019b02973f4",
        "type": "ui_button",
        "z": "b1d202eb8509dac1",
        "name": "",
        "group": "ab26b46ebfe47805",
        "order": 0,
        "width": "32",
        "height": "2",
        "passthru": false,
        "label": " ",
        "tooltip": "",
        "color": "black",
        "bgcolor": "black",
        "className": "",
        "icon": "",
        "payload": "alejate de bigo",
        "payloadType": "str",
        "topic": "trollencio",
        "topicType": "msg",
        "x": 1040,
        "y": 540,
        "wires": [
            [
                "5c94cb1efa1934fa",
                "b088446c7832b4a7"
            ]
        ]
    },
    {
        "id": "5c94cb1efa1934fa",
        "type": "ui_audio",
        "z": "b1d202eb8509dac1",
        "name": "",
        "group": "ab26b46ebfe47805",
        "voice": "Google español de Estados Unidos",
        "always": true,
        "x": 1340,
        "y": 520,
        "wires": []
    },
    {
        "id": "b088446c7832b4a7",
        "type": "delay",
        "z": "b1d202eb8509dac1",
        "name": "",
        "pauseType": "delay",
        "timeout": "2",
        "timeoutUnits": "seconds",
        "rate": "1",
        "nbRateUnits": "1",
        "rateUnits": "second",
        "randomFirst": "1",
        "randomLast": "5",
        "randomUnits": "seconds",
        "drop": false,
        "allowrate": false,
        "outputs": 1,
        "x": 1210,
        "y": 620,
        "wires": [
            [
                "e728f9b4dbd130d7"
            ]
        ]
    },
    {
        "id": "d68fc438178c5743",
        "type": "ui_audio",
        "z": "b1d202eb8509dac1",
        "name": "",
        "group": "ab26b46ebfe47805",
        "voice": "Google US English",
        "always": "",
        "x": 1540,
        "y": 640,
        "wires": []
    },
    {
        "id": "e728f9b4dbd130d7",
        "type": "function",
        "z": "b1d202eb8509dac1",
        "name": "topic.presion",
        "func": "var in1 = msg.payload;\nif (in1==\"alejate de bigo\")\n    {\n    out = \"guau guau no lo hagas kerke\";\n    }\n    msg.payload = out;\n    msg.topic=\"bigo\";\n    return msg;",
        "outputs": 1,
        "noerr": 0,
        "initialize": "",
        "finalize": "",
        "libs": [],
        "x": 1370,
        "y": 620,
        "wires": [
            [
                "d68fc438178c5743"
            ]
        ]
    },
    {
        "id": "34c1ad15b138ebbf",
        "type": "debug",
        "z": "b1d202eb8509dac1",
        "name": "",
        "active": true,
        "tosidebar": true,
        "console": false,
        "tostatus": false,
        "complete": "payloadrererer",
        "targetType": "msg",
        "statusVal": "",
        "statusType": "auto",
        "x": 1960,
        "y": 220,
        "wires": []
    },
    {
        "id": "eb1290e155255173",
        "type": "csv",
        "z": "b1d202eb8509dac1",
        "name": "",
        "sep": ",",
        "hdrin": "",
        "hdrout": "none",
        "multi": "one",
        "ret": "\\n",
        "temp": "humedad, temp, presion",
        "skip": "0",
        "strings": true,
        "include_empty_strings": "",
        "include_null_values": "",
        "x": 1730,
        "y": 400,
        "wires": [
            [
                "a5a58881ccc29c6b"
            ]
        ]
    },
    {
        "id": "a5a58881ccc29c6b",
        "type": "file",
        "z": "b1d202eb8509dac1",
        "name": "Datos recividos",
        "filename": "/home/linuxlite/Downloads/mediciones.txt",
        "appendNewline": true,
        "createDir": true,
        "overwriteFile": "false",
        "encoding": "none",
        "x": 1920,
        "y": 400,
        "wires": [
            [
                "34c1ad15b138ebbf"
            ]
        ]
    },
    {
        "id": "529717ecc462077c",
        "type": "ui_chart",
        "z": "b1d202eb8509dac1",
        "name": "",
        "group": "b571684935c6a8c4",
        "order": 2,
        "width": 20,
        "height": 7,
        "label": "temp. & humedad",
        "chartType": "line",
        "legend": "true",
        "xformat": "HH:mm",
        "interpolate": "bezier",
        "nodata": "",
        "dot": false,
        "ymin": "0",
        "ymax": "150",
        "removeOlder": "10",
        "removeOlderPoints": "20",
        "removeOlderUnit": "60",
        "cutout": 0,
        "useOneColor": false,
        "useUTC": false,
        "colors": [
            "#0099ff",
            "#bfff00",
            "#ff7f0e",
            "#2ca02c",
            "#98df8a",
            "#d62728",
            "#ff9896",
            "#9467bd",
            "#c5b0d5"
        ],
        "outputs": 1,
        "useDifferentColor": false,
        "className": "",
        "x": 1550,
        "y": 300,
        "wires": [
            []
        ]
    }
]